[gd_scene load_steps=2 format=2]

[ext_resource path="res://Scripts/Seeker.gd" type="Script" id=1]

[node name="Seeker" type="Area2D"]
script = ExtResource( 1 )

[node name="Timer" type="Timer" parent="."]
autostart = true
[connection signal="timeout" from="Timer" to="." method="_on_Timer_timeout"]
